{
  "posts": [
    {
      "id": 1,
      "title": "json-server",
      "author": "typicode"
    },
    {
      "id": 2
    }
  ],
  "comments": [
    {
      "id": 1,
      "body": "some comment",
      "postId": 1
    }
  ],
  "profile": {
    "name": "Тимур",
    "surname": "Ульби",
    "age": 22,
    "currency": "RUB",
    "country": "Russia",
    "city": "Moscow",
    "username": "admin",
    "avatar": "https://pic.rutubelist.ru/user/3b/27/3b2758ad5492a76b578f7ee072e4e894.jpg"
  },
  "users": [
    {
      "id": 1123,
      "name": "admin",
      "password": "123"
    }
  ]
}